…
Right, so this is actually a HTML file. Is it a table?

stringr::str_sub(readr::read_lines("export.xls", n_max = 1, skip = 7), 1, 100)

## [1] "<table border='1'><tr><td>RED_IZO</td><td>I\xc8O</td><td>Z\xf8izovatel</td><td>\xdazem\xed</td><td>Kraj</td><td>"

Let’s try parsing it then.

tbl <- read_html("export.xls") %>% 
  html_table(header = T)

tbl[[1]]

## # A tibble: 99 x 27
##    RED_IZO    IČO Zřizovatel Území Kraj  `Správní úřad`   ORP `Plný název`
##      <int>  <int>      <int> <chr> <chr> <chr>          <int> <chr>       
##  1  6.00e8 8.55e5          7 CZ05… Libe… B51000          5109 Gymnázium, …
##  2  6.00e8 8.55e5          7 CZ05… Libe… B51000          5109 Střední umě…
##  3  6.00e8 8.56e5          7 CZ05… Libe… B51000          5107 Gymnázium I…
##  4  6.00e8 5.81e5          7 CZ05… Libe… B51000          5109 Střední zdr…
##  5  6.00e8 7.08e7          7 CZ05… Libe… B51000          5107 Základní šk…
##  6  6.00e8 8.55e5          7 CZ05… Libe… B51000          5107 Dětský domo…
##  7  6.00e8 7.09e7          7 CZ05… Libe… B51000          5107 Pedagogicko…
##  8  6.00e8 7.10e7          2 CZ05… Libe… D51040          5104 Mateřská šk…
##  9  6.00e8 7.07e7          2 CZ05… Libe… D51080          5108 Mateřská šk…
## 10  6.00e8 7.27e7          2 CZ05… Libe… D51040          5104 Mateřská šk…
## # … with 89 more rows, and 19 more variables: `Zkrácený název` <chr>,
## #   Ulice <chr>, č.p. <int>, č.or. <lgl>, č.obce <chr>, PSČ <int>, Místo <chr>,
## #   Telefon <chr>, Fax <chr>, `Email 1` <chr>, `Email 2` <chr>, WWW <chr>, `ID
## #   dat. schránky subjektu` <chr>, Ředitel <chr>, X <chr>, `je OVM` <chr>,
## #   ZUJ <int>, `Email zřizovatele` <chr>, `ID dat. schránky zřizovatele` <chr>
…
